test4_mock10.acnes	{'marker lineage': 'k__Bacteria', '# genomes': 5449, '# markers': 104, '# marker sets': 58, '0': 79, '1': 25, '2': 0, '3': 0, '4': 0, '5+': 0, 'Completeness': 37.93103448275862, 'Contamination': 0.0, 'GC': 0.5922061570998544, 'GC std': 0.024233237580200077, 'Genome size': 887983, '# ambiguous bases': 0, '# scaffolds': 186, '# contigs': 186, 'Longest scaffold': 38587, 'Longest contig': 38587, 'N50 (scaffolds)': 13037, 'N50 (contigs)': 13037, 'Mean scaffold length': 4774.102150537635, 'Mean contig length': 4774.102150537635, 'Coding density': 0.8819301720866278, 'Translation table': 11, '# predicted genes': 1016, 'GCN0': ['PF00237', 'TIGR02075', 'PF08459', 'PF00573', 'PF00333', 'PF02367', 'TIGR00250', 'PF00162', 'PF00562', 'PF00829', 'PF03719', 'PF00203', 'PF11987', 'PF00623', 'PF04983', 'PF00297', 'PF01195', 'PF04998', 'PF04560', 'TIGR00967', 'PF01668', 'TIGR00810', 'PF04563', 'TIGR00855', 'PF01000', 'PF04561', 'PF00298', 'TIGR02432', 'PF01016', 'TIGR03723', 'PF04565', 'TIGR00392', 'PF00177', 'PF01196', 'PF00338', 'PF00366', 'PF00831', 'PF01765', 'PF00416', 'PF10385', 'PF00687', 'PF01245', 'PF01193', 'PF08529', 'PF00238', 'PF00181', 'PF00281', 'PF00466', 'PF13184', 'PF03947', 'TIGR01079', 'PF05000', 'PF00572', 'PF00276', 'PF00673', 'PF00889', 'PF00318', 'PF05697', 'PF00164', 'TIGR00329', 'PF00410', 'PF06071', 'PF00252', 'PF00828', 'TIGR00755', 'PF00380', 'PF03946', 'PF00189', 'PF01018', 'PF00347', 'TIGR03263', 'TIGR00460', 'TIGR00344', 'PF00861', 'PF00411', 'TIGR03594', 'TIGR00922', 'PF04997', 'TIGR00019'], 'GCN1': ['PF02978', 'PF01632', 'TIGR00615', 'PF00453', 'PF13603', 'PF06421', 'PF00886', 'PF01121', 'PF01250', 'PF03948', 'TIGR00459', 'PF01746', 'PF02033', 'PF01509', 'PF01649', 'PF01409', 'TIGR00084', 'PF01281', 'PF00312', 'PF01795', 'PF05491', 'PF02130', 'PF03484', 'PF12344', 'PF02912'], 'GCN2': [], 'GCN3': [], 'GCN4': [], 'GCN5+': []}
test1_mock19.bifido	{'marker lineage': 'k__Bacteria', '# genomes': 5449, '# markers': 104, '# marker sets': 58, '0': 65, '1': 38, '2': 1, '3': 0, '4': 0, '5+': 0, 'Completeness': 44.67084639498433, 'Contamination': 0.15673981191222572, 'GC': 0.5541444508004383, 'GC std': 0.02593584094740148, 'Genome size': 1199218, '# ambiguous bases': 0, '# scaffolds': 174, '# contigs': 174, 'Longest scaffold': 57411, 'Longest contig': 57411, 'N50 (scaffolds)': 18415, 'N50 (contigs)': 18415, 'Mean scaffold length': 6892.057471264367, 'Mean contig length': 6892.057471264367, 'Coding density': 0.8654881764616609, 'Translation table': 11, '# predicted genes': 1114, 'GCN0': ['PF02978', 'PF00237', 'PF00573', 'PF00333', 'TIGR00250', 'PF00562', 'PF00829', 'PF13603', 'PF03719', 'PF00203', 'PF11987', 'PF00623', 'PF04983', 'PF01195', 'PF04998', 'PF04560', 'PF04563', 'TIGR00855', 'PF01000', 'PF04561', 'PF00298', 'TIGR02432', 'PF01016', 'PF04565', 'TIGR00392', 'PF00177', 'PF01196', 'PF00416', 'PF10385', 'PF00687', 'PF01245', 'PF01193', 'PF08529', 'PF02033', 'PF01509', 'PF00181', 'PF00466', 'PF13184', 'PF03947', 'PF05000', 'PF00572', 'PF00276', 'PF01409', 'PF05697', 'PF00164', 'PF06071', 'PF00252', 'PF00828', 'PF00312', 'PF00380', 'PF03946', 'PF00189', 'PF01018', 'PF01795', 'PF02130', 'TIGR03263', 'TIGR00460', 'TIGR00344', 'PF03484', 'PF00861', 'PF00411', 'PF02912', 'TIGR00922', 'PF04997', 'TIGR00019'], 'GCN1': ['PF01632', 'TIGR00615', 'TIGR02075', 'PF08459', 'PF02367', 'PF00162', 'PF00453', 'PF06421', 'PF00297', 'PF00886', 'TIGR00967', 'PF01668', 'PF01121', 'TIGR00810', 'PF01250', 'PF03948', 'TIGR03723', 'PF00338', 'PF00366', 'PF00831', 'PF01765', 'TIGR00459', 'PF01746', 'PF00238', 'PF00281', 'TIGR01079', 'PF01649', 'PF00889', 'PF00318', 'TIGR00329', 'PF00410', 'TIGR00084', 'PF01281', 'TIGR00755', 'PF05491', 'PF00347', 'PF12344', 'TIGR03594'], 'GCN2': ['PF00673'], 'GCN3': [], 'GCN4': [], 'GCN5+': []}
test5_mock25.acnes	{'marker lineage': 'k__Bacteria', '# genomes': 5449, '# markers': 104, '# marker sets': 58, '0': 78, '1': 25, '2': 1, '3': 0, '4': 0, '5+': 0, 'Completeness': 34.98432601880877, 'Contamination': 1.7241379310344827, 'GC': 0.5928353424343866, 'GC std': 0.04354097466431938, 'Genome size': 1021933, '# ambiguous bases': 0, '# scaffolds': 188, '# contigs': 188, 'Longest scaffold': 50499, 'Longest contig': 50499, 'N50 (scaffolds)': 13789, 'N50 (contigs)': 13789, 'Mean scaffold length': 5435.813829787234, 'Mean contig length': 5435.813829787234, 'Coding density': 0.8834483278257969, 'Translation table': 11, '# predicted genes': 1113, 'GCN0': ['PF02978', 'PF00237', 'TIGR02075', 'PF08459', 'PF00573', 'PF00333', 'PF02367', 'TIGR00250', 'PF00162', 'PF00562', 'PF00829', 'PF03719', 'PF00203', 'PF00623', 'PF04983', 'PF00297', 'PF00886', 'PF01195', 'PF04998', 'PF04560', 'PF01668', 'TIGR00810', 'PF04563', 'TIGR00855', 'PF01000', 'PF04561', 'PF00298', 'PF01016', 'TIGR03723', 'PF04565', 'PF00177', 'PF01196', 'PF00338', 'PF00366', 'PF00831', 'PF01765', 'TIGR00459', 'PF10385', 'PF00687', 'PF01245', 'PF01193', 'PF01746', 'PF00238', 'PF00181', 'PF00281', 'PF00466', 'PF03947', 'TIGR01079', 'PF05000', 'PF00572', 'PF00276', 'PF00673', 'PF00889', 'PF00318', 'PF05697', 'PF00164', 'TIGR00329', 'PF00410', 'TIGR00084', 'PF00252', 'PF00828', 'TIGR00755', 'PF00380', 'PF03946', 'PF00189', 'PF01018', 'PF01795', 'PF05491', 'PF00347', 'TIGR03263', 'TIGR00460', 'TIGR00344', 'PF00861', 'PF00411', 'TIGR03594', 'TIGR00922', 'PF04997', 'TIGR00019'], 'GCN1': ['PF01632', 'TIGR00615', 'PF00453', 'PF13603', 'PF11987', 'TIGR00967', 'PF01121', 'PF01250', 'PF03948', 'TIGR02432', 'TIGR00392', 'PF00416', 'PF08529', 'PF02033', 'PF01509', 'PF13184', 'PF01649', 'PF01409', 'PF06071', 'PF01281', 'PF00312', 'PF02130', 'PF03484', 'PF12344', 'PF02912'], 'GCN2': ['PF06421'], 'GCN3': [], 'GCN4': [], 'GCN5+': []}
test6_mock9.acnes	{'marker lineage': 'k__Bacteria', '# genomes': 5449, '# markers': 104, '# marker sets': 58, '0': 70, '1': 34, '2': 0, '3': 0, '4': 0, '5+': 0, 'Completeness': 50.0, 'Contamination': 0.0, 'GC': 0.5946619361154765, 'GC std': 0.02228006180777984, 'Genome size': 1086836, '# ambiguous bases': 0, '# scaffolds': 190, '# contigs': 190, 'Longest scaffold': 90284, 'Longest contig': 90284, 'N50 (scaffolds)': 11748, 'N50 (contigs)': 11748, 'Mean scaffold length': 5720.1894736842105, 'Mean contig length': 5720.1894736842105, 'Coding density': 0.8904333312477688, 'Translation table': 11, '# predicted genes': 1184, 'GCN0': ['TIGR00615', 'PF00237', 'PF00573', 'PF00333', 'PF02367', 'PF00162', 'PF00562', 'PF03719', 'PF00203', 'PF00623', 'PF04983', 'PF00297', 'PF01195', 'PF04998', 'PF04560', 'TIGR00967', 'PF01668', 'TIGR00810', 'PF01250', 'PF04563', 'TIGR00855', 'PF01000', 'PF03948', 'PF04561', 'PF00298', 'TIGR03723', 'PF04565', 'PF00177', 'PF01196', 'PF00338', 'PF00366', 'PF00831', 'PF00416', 'PF10385', 'PF00687', 'PF01245', 'PF01193', 'PF00238', 'PF00181', 'PF00281', 'PF00466', 'PF03947', 'TIGR01079', 'PF05000', 'PF00572', 'PF00276', 'PF00673', 'PF05697', 'PF00164', 'TIGR00329', 'PF00410', 'PF00252', 'PF01281', 'PF00828', 'TIGR00755', 'PF00380', 'PF03946', 'PF00189', 'PF01018', 'PF01795', 'PF02130', 'PF00347', 'TIGR03263', 'TIGR00460', 'PF00861', 'PF00411', 'TIGR03594', 'TIGR00922', 'PF04997', 'TIGR00019'], 'GCN1': ['PF02978', 'PF01632', 'TIGR02075', 'PF08459', 'TIGR00250', 'PF00829', 'PF00453', 'PF13603', 'PF11987', 'PF06421', 'PF00886', 'PF01121', 'TIGR02432', 'PF01016', 'TIGR00392', 'PF01765', 'TIGR00459', 'PF08529', 'PF01746', 'PF02033', 'PF01509', 'PF13184', 'PF01649', 'PF01409', 'PF00889', 'PF00318', 'PF06071', 'TIGR00084', 'PF00312', 'PF05491', 'TIGR00344', 'PF03484', 'PF12344', 'PF02912'], 'GCN2': [], 'GCN3': [], 'GCN4': [], 'GCN5+': []}
test3_mock4.bifido	{'marker lineage': 'f__Bifidobacteriaceae', '# genomes': 77, '# markers': 464, '# marker sets': 220, '0': 298, '1': 165, '2': 1, '3': 0, '4': 0, '5+': 0, 'Completeness': 38.6969696969697, 'Contamination': 0.45454545454545453, 'GC': 0.5526954028269092, 'GC std': 0.03524360307866062, 'Genome size': 1044816, '# ambiguous bases': 0, '# scaffolds': 155, '# contigs': 155, 'Longest scaffold': 52796, 'Longest contig': 52796, 'N50 (scaffolds)': 14511, 'N50 (contigs)': 14511, 'Mean scaffold length': 6740.748387096774, 'Mean contig length': 6740.748387096774, 'Coding density': 0.8682897275692563, 'Translation table': 11, '# predicted genes': 985, 'GCN0': ['TIGR01795', 'PF02650', 'PF00119', 'PF05698', 'PF01612', 'PF00118', 'PF04095', 'TIGR01037', 'TIGR01142', 'TIGR03346', 'PF01161', 'TIGR00552', 'PF00871', 'PF00203', 'PF00623', 'PF06421', 'PF00297', 'PF05198', 'PF04560', 'PF10609', 'PF11228', 'PF06418', 'PF01207', 'PF00231', 'PF04563', 'PF10150', 'PF02824', 'PF04561', 'PF03143', 'TIGR01068', 'TIGR02493', 'PF04565', 'PF02787', 'PF03894', 'PF13740', 'TIGR00962', 'PF11898', 'TIGR01966', 'PF00137', 'PF01575', 'TIGR00195', 'PF01245', 'TIGR01134', 'TIGR00336', 'PF03447', 'PF02897', 'PF00160', 'TIGR01979', 'PF00481', 'TIGR00093', 'TIGR01510', 'PF01132', 'PF09186', 'PF02781', 'PF00276', 'TIGR01087', 'PF02620', 'PF02844', 'PF03461', 'PF00673', 'PF01406', 'PF13335', 'TIGR00633', 'PF09190', 'TIGR01143', 'PF01084', 'PF00224', 'TIGR00418', 'PF02130', 'PF12169', 'PF01071', 'PF04417', 'PF11238', 'TIGR00767', 'PF12282', 'PF03033', 'PF09949', 'PF02748', 'TIGR01978', 'PF08459', 'PF02357', 'PF02618', 'PF00573', 'PF06103', 'PF02272', 'PF08478', 'PF00453', 'PF02021', 'PF06947', 'PF00886', 'TIGR00690', 'PF01668', 'PF00542', 'PF01250', 'PF02768', 'PF00163', 'PF01000', 'PF13834', 'PF01588', 'PF01016', 'TIGR01059', 'PF05746', 'TIGR00392', 'PF00177', 'PF07568', 'PF01196', 'PF00831', 'PF08354', 'TIGR01515', 'PF02464', 'PF13224', 'TIGR01123', 'PF00181', 'PF03668', 'TIGR01079', 'TIGR01082', 'PF05000', 'PF06965', 'PF00121', 'PF00484', 'TIGR01073', 'PF11241', 'PF00750', 'PF03710', 'TIGR00011', 'PF13090', 'TIGR01083', 'PF02887', 'PF09285', 'TIGR01036', 'PF05175', 'PF04452', 'PF00252', 'PF01281', 'PF04472', 'PF00312', 'PF00380', 'PF01116', 'PF02863', 'PF01018', 'PF00091', 'PF03484', 'PF01252', 'PF02843', 'PF01808', 'TIGR00576', 'PF02912', 'PF01728', 'PF04977', 'PF01632', 'TIGR01063', 'PF02503', 'PF00709', 'PF03147', 'PF01195', 'PF01726', 'TIGR00594', 'PF03483', 'PF00113', 'PF02132', 'TIGR00445', 'PF00479', 'PF00013', 'PF03948', 'PF05258', 'PF02767', 'PF00298', 'TIGR01499', 'PF06738', 'PF00712', 'PF05958', 'PF00923', 'TIGR01039', 'PF03652', 'PF05195', 'PF02823', 'PF02381', 'PF11268', 'PF03881', 'PF10385', 'TIGR00234', 'PF12401', 'PF12821', 'PF01193', 'TIGR01090', 'PF00719', 'PF00213', 'TIGR00556', 'TIGR01980', 'PF03947', 'PF13507', 'PF01761', 'PF01653', 'PF00707', 'PF03726', 'PF08704', 'PF05697', 'PF00684', 'PF05649', 'PF01259', 'PF00164', 'PF02901', 'PF09269', 'PF01351', 'TIGR01513', 'TIGR01091', 'PF02578', 'PF10418', 'PF02545', 'PF00342', 'TIGR01981', 'PF02527', 'PF02224', 'PF13368', 'TIGR00611', 'PF05491', 'PF08299', 'TIGR00044', 'PF03119', 'PF02390', 'TIGR00005', 'PF04408', 'PF01592', 'PF06293', 'PF02978', 'PF01411', 'PF04263', 'PF00829', 'PF03449', 'PF13291', 'PF08501', 'PF04983', 'PF03485', 'PF14029', 'TIGR00233', 'PF10128', 'PF01939', 'PF07499', 'PF03717', 'PF02911', 'PF01416', 'PF01741', 'TIGR02673', 'PF03120', 'TIGR01951', 'PF00366', 'PF02562', 'PF08207', 'PF13328', 'TIGR00670', 'PF01205', 'PF00687', 'PF02325', 'PF00742', 'PF03118', 'PF01316', 'PF01709', 'PF01704', 'PF03952', 'PF01330', 'PF12089', 'PF06781', 'TIGR03816', 'PF00281', 'PF00466', 'PF01424', 'PF00572', 'TIGR00838', 'PF09363', 'TIGR00389', 'PF01515', 'PF01409', 'TIGR00861', 'PF02075', 'PF13089', 'PF02699', 'PF00551', 'PF00764', 'PF07717', 'TIGR01394', 'PF03946', 'PF00430', 'TIGR00436', 'PF01795', 'TIGR01744', 'PF00625', 'PF13829', 'TIGR00185', 'PF03641', 'PF13167', 'PF00455', 'PF11273', 'PF01725', 'TIGR03594', 'PF12502', 'PF00988', 'TIGR00020', 'TIGR00878'], 'GCN1': ['PF10370', 'PF01895', 'PF01513', 'PF01228', 'PF02739', 'PF03993', 'PF01025', 'PF07685', 'PF11838', 'PF01431', 'PF00338', 'PF04539', 'PF00416', 'PF08353', 'PF06574', 'TIGR00095', 'PF02410', 'PF00303', 'PF00348', 'PF01176', 'TIGR00539', 'PF11377', 'PF01256', 'PF00166', 'PF00154', 'PF01268', 'TIGR01161', 'TIGR01203', 'TIGR00482', 'TIGR01173', 'PF00037', 'TIGR00132', 'PF00842', 'PF02403', 'PF02873', 'PF00731', 'TIGR00499', 'TIGR00409', 'PF12344', 'PF02637', 'TIGR02075', 'PF00627', 'PF01715', 'PF01687', 'PF11987', 'PF00398', 'PF12836', 'PF01272', 'PF01743', 'PF13397', 'PF02800', 'TIGR01304', 'PF13180', 'PF09924', 'PF02601', 'TIGR00536', 'PF00075', 'PF09397', 'PF12029', 'PF07516', 'PF08529', 'PF01746', 'PF00327', 'TIGR01575', 'PF01027', 'PF13742', 'TIGR00152', 'PF00889', 'TIGR00416', 'PF06071', 'PF11967', 'PF01782', 'TIGR00260', 'PF00828', 'PF01790', 'TIGR01356', 'TIGR00067', 'PF00411', 'PF07884', 'PF03309', 'PF01594', 'TIGR00019', 'PF00044', 'PF00237', 'PF03706', 'PF02482', 'PF10410', 'PF13603', 'PF01985', 'PF03719', 'PF13393', 'PF00958', 'PF00012', 'TIGR00967', 'PF08328', 'PF02938', 'TIGR01072', 'PF07521', 'PF01148', 'TIGR00634', 'TIGR01455', 'PF01300', 'PF01765', 'PF00186', 'PF01784', 'PF10611', 'PF10103', 'PF02033', 'PF01509', 'PF13184', 'TIGR03719', 'PF00406', 'PF01649', 'PF01386', 'PF02146', 'PF02686', 'PF00590', 'PF00216', 'PF02810', 'PF01557', 'PF00189', 'PF11253', 'PF09364', 'TIGR03725', 'PF00763', 'TIGR01258', 'PF02882', 'PF13597', 'PF01043', 'PF00333', 'PF06026', 'PF01807', 'TIGR01302', 'PF01255', 'PF02631', 'PF03772', 'PF01565', 'PF13491', 'TIGR03723', 'PF08275', 'PF01433', 'TIGR00064', 'PF00140', 'PF02565', 'PF07517', 'PF08148', 'TIGR01128', 'TIGR00464', 'PF11361', 'PF00318', 'TIGR00329', 'PF01702', 'PF00410', 'PF03861', 'PF00772', 'PF01367', 'PF00347', 'PF01026', 'TIGR03543', 'TIGR02491', 'PF00861', 'TIGR03534', 'PF01434', 'PF12627', 'PF01040'], 'GCN2': ['TIGR02274'], 'GCN3': [], 'GCN4': [], 'GCN5+': []}
test2_mock3.bifido	{'marker lineage': 'f__Bifidobacteriaceae', '# genomes': 77, '# markers': 464, '# marker sets': 220, '0': 251, '1': 211, '2': 2, '3': 0, '4': 0, '5+': 0, 'Completeness': 44.47366522366523, 'Contamination': 0.5303030303030303, 'GC': 0.5559845459281125, 'GC std': 0.02917406833712542, 'Genome size': 1151800, '# ambiguous bases': 0, '# scaffolds': 160, '# contigs': 160, 'Longest scaffold': 60936, 'Longest contig': 60936, 'N50 (scaffolds)': 22029, 'N50 (contigs)': 22029, 'Mean scaffold length': 7198.75, 'Mean contig length': 7198.75, 'Coding density': 0.8724648376454246, 'Translation table': 11, '# predicted genes': 1034, 'GCN0': ['PF00119', 'PF00118', 'PF04095', 'TIGR01037', 'TIGR01142', 'PF01161', 'PF00871', 'PF00623', 'PF06421', 'PF04560', 'PF03993', 'PF11228', 'PF06418', 'PF00231', 'PF04563', 'PF01025', 'PF02824', 'PF04561', 'PF03143', 'TIGR01068', 'PF04565', 'PF02787', 'PF03894', 'TIGR00962', 'PF00416', 'TIGR01966', 'PF00137', 'PF06574', 'PF01575', 'PF02410', 'TIGR00336', 'PF03447', 'PF00160', 'PF01176', 'TIGR00539', 'TIGR01979', 'PF00481', 'PF11377', 'TIGR00093', 'TIGR01510', 'PF01132', 'PF09186', 'PF01256', 'PF02620', 'PF03461', 'PF00154', 'PF01268', 'TIGR01203', 'TIGR00482', 'TIGR01173', 'PF13335', 'PF09190', 'PF01084', 'PF00224', 'TIGR00418', 'PF02130', 'PF12169', 'PF00731', 'PF01071', 'PF04417', 'PF11238', 'PF12344', 'PF02748', 'TIGR01978', 'TIGR02075', 'PF02618', 'PF00627', 'PF06103', 'PF02272', 'PF01715', 'PF01687', 'PF02021', 'PF11987', 'PF06947', 'TIGR00690', 'PF12836', 'PF00542', 'TIGR01304', 'PF00163', 'PF01000', 'PF13834', 'PF01588', 'PF13180', 'TIGR01059', 'PF05746', 'PF00075', 'TIGR00392', 'PF00177', 'PF01196', 'PF09397', 'PF12029', 'PF08354', 'TIGR01515', 'PF07516', 'PF02464', 'PF13224', 'PF08529', 'TIGR01123', 'PF05000', 'PF00484', 'TIGR00152', 'TIGR01073', 'PF00889', 'PF00750', 'PF03710', 'PF13090', 'TIGR01083', 'PF02887', 'PF09285', 'TIGR00416', 'PF06071', 'PF04452', 'PF01281', 'PF01782', 'TIGR00260', 'PF01116', 'PF02863', 'PF01790', 'TIGR01356', 'PF03484', 'TIGR00067', 'PF00411', 'PF01808', 'TIGR00576', 'PF07884', 'PF02912', 'PF01594', 'PF04977', 'PF02482', 'PF13603', 'TIGR01063', 'PF02503', 'PF00709', 'PF03147', 'PF13393', 'PF00958', 'PF01195', 'PF01726', 'PF00012', 'TIGR00967', 'PF03483', 'PF00113', 'PF02132', 'PF02938', 'PF03948', 'TIGR01072', 'PF06738', 'PF01148', 'TIGR01039', 'PF03652', 'PF02823', 'PF02381', 'PF01765', 'PF11268', 'PF10385', 'TIGR00234', 'PF12821', 'PF01193', 'PF10103', 'PF02033', 'PF01509', 'TIGR01090', 'PF00719', 'PF00213', 'TIGR00556', 'TIGR01980', 'PF13184', 'PF01761', 'TIGR03719', 'PF00406', 'PF01649', 'PF01386', 'PF02146', 'PF08704', 'PF01259', 'TIGR01513', 'TIGR01091', 'PF10418', 'PF02545', 'PF02810', 'TIGR01981', 'PF02527', 'PF02224', 'PF13368', 'PF11253', 'PF09364', 'PF05491', 'PF00763', 'PF02882', 'PF01592', 'PF06293', 'PF01043', 'PF02978', 'PF01411', 'PF06026', 'PF13291', 'PF04983', 'PF03485', 'PF14029', 'TIGR00233', 'PF01939', 'PF07499', 'PF02631', 'PF02911', 'PF03772', 'PF01416', 'PF13491', 'TIGR01951', 'PF02562', 'PF08207', 'PF13328', 'TIGR00670', 'PF01205', 'PF00742', 'PF03118', 'PF01316', 'PF01709', 'PF01704', 'PF03952', 'PF01330', 'PF06781', 'TIGR03816', 'PF00466', 'PF01424', 'PF07517', 'TIGR00838', 'PF09363', 'PF01515', 'PF01409', 'TIGR00861', 'TIGR00464', 'PF02075', 'PF00318', 'PF13089', 'PF01702', 'PF02699', 'PF00551', 'PF00764', 'PF00430', 'TIGR00436', 'TIGR01744', 'PF00625', 'TIGR03543', 'TIGR00185', 'PF03641', 'PF13167', 'PF11273', 'PF01725', 'TIGR03594', 'PF01434', 'PF00988'], 'GCN1': ['TIGR01795', 'PF10370', 'PF02650', 'PF01895', 'PF05698', 'PF01612', 'PF01513', 'TIGR03346', 'TIGR00552', 'PF00203', 'PF00297', 'PF01228', 'PF05198', 'PF02739', 'PF10609', 'PF01207', 'PF10150', 'PF07685', 'TIGR02493', 'PF11838', 'PF01431', 'PF13740', 'PF00338', 'PF04539', 'PF08353', 'PF11898', 'TIGR00095', 'TIGR00195', 'PF01245', 'TIGR01134', 'PF02897', 'PF00303', 'PF00348', 'PF02781', 'PF00276', 'TIGR01087', 'PF02844', 'PF00673', 'PF00166', 'TIGR01161', 'PF01406', 'PF00037', 'TIGR00633', 'TIGR00132', 'PF00842', 'TIGR01143', 'PF02403', 'PF02873', 'TIGR00499', 'TIGR00767', 'TIGR00409', 'PF12282', 'PF03033', 'PF09949', 'PF02637', 'PF08459', 'PF02357', 'PF00573', 'PF08478', 'PF00453', 'PF00886', 'PF00398', 'PF01668', 'PF01272', 'PF01250', 'PF02768', 'PF01743', 'PF13397', 'PF02800', 'PF01016', 'PF09924', 'PF02601', 'TIGR00536', 'PF07568', 'PF00831', 'PF01746', 'PF00181', 'PF00327', 'TIGR01575', 'PF03668', 'TIGR01079', 'TIGR01082', 'PF01027', 'PF06965', 'PF13742', 'PF00121', 'PF11241', 'TIGR00011', 'TIGR01036', 'PF05175', 'PF11967', 'PF00828', 'PF04472', 'PF00312', 'PF00380', 'PF01018', 'PF00091', 'PF01252', 'PF02843', 'PF03309', 'TIGR00019', 'PF01728', 'PF00044', 'PF01632', 'PF00237', 'PF03706', 'PF10410', 'PF01985', 'PF03719', 'TIGR00594', 'TIGR00445', 'PF00479', 'PF08328', 'PF00013', 'PF05258', 'PF02767', 'PF00298', 'TIGR01499', 'PF07521', 'PF00712', 'TIGR00634', 'TIGR01455', 'PF05958', 'PF00923', 'PF01300', 'PF05195', 'PF00186', 'PF01784', 'PF03881', 'PF10611', 'PF12401', 'PF03947', 'PF13507', 'PF01653', 'PF00707', 'PF03726', 'PF05697', 'PF02686', 'PF00590', 'PF00684', 'PF05649', 'PF00164', 'PF02901', 'PF09269', 'PF01351', 'PF02578', 'PF00216', 'PF00342', 'PF01557', 'PF00189', 'TIGR00611', 'PF08299', 'TIGR00044', 'TIGR03725', 'PF03119', 'PF02390', 'TIGR00005', 'TIGR01258', 'PF04408', 'PF13597', 'PF00333', 'PF04263', 'PF00829', 'PF03449', 'PF08501', 'PF01807', 'TIGR01302', 'PF10128', 'PF03717', 'PF01255', 'PF01565', 'PF01741', 'TIGR03723', 'PF08275', 'TIGR02673', 'PF03120', 'PF00366', 'PF01433', 'TIGR00064', 'PF00687', 'PF02325', 'PF12089', 'PF00281', 'PF00140', 'PF02565', 'PF08148', 'TIGR01128', 'PF00572', 'TIGR00389', 'PF11361', 'TIGR00329', 'PF00410', 'PF03861', 'PF07717', 'TIGR01394', 'PF03946', 'PF00772', 'PF01367', 'PF01795', 'PF00347', 'PF01026', 'PF13829', 'TIGR02491', 'PF00455', 'PF00861', 'TIGR03534', 'PF12502', 'PF12627', 'PF01040', 'TIGR00020', 'TIGR00878'], 'GCN2': ['TIGR02274', 'PF00252'], 'GCN3': [], 'GCN4': [], 'GCN5+': []}
